%YAML 1.1
%TAG !u! tag:unity3d.com,2011:
--- !u!1045 &1
EditorBuildSettings:
  m_ObjectHideFlags: 0
  serializedVersion: 2
  m_Scenes:
  - enabled: 1
    path: Assets/Scenes/MainMenu.unity
    guid: 8d991ad68c46c4d81a14831b0345a330
  - enabled: 1
    path: Assets/Scenes/Level.unity
    guid: d4bc986a6a35f40239cd5193df6d50d7
  - enabled: 1
    path: Assets/Scenes/GameOver.unity
    guid: d674a0011d82447279c3fcce92699b8f
  m_configObjects: {}
